1,Doraemon,30/11/2019,12:00,Deluxe Hall,A2,A3,E2,E3,E4
oscar,Frozen2,30/11/2019,15:30,3D Supreme Hall,C5,C6
1,It,26/11/2019,12:00,Deluxe 4K Hall,A5,A6,A7
oscar,It,26/11/2019,12:00,Deluxe 4K Hall,B4,B5
oscar,It,26/11/2019,12:00,Deluxe 4K Hall,E5,E6
1,Doraemon,25/11/2019,12:00,Deluxe Hall,A1,A2,A3,A4,A5
1,Doraemon,25/11/2019,12:00,Deluxe Hall,D5,D6
